{
    "senyores": [
        {
            "id": 1,
            "nombre": "El Fary",
            "profesion": "Influencer",
            "foto": "fary.jpg",
            "estado": "R.I.P.",
            "twitter": "Pendiente"
        },
        {
            "id": 2,
            "nombre": "Julio Iglesias",
            "profesion": "Youtuber",
            "foto": "julio.jpg",
            "estado": "Vivo",
            "twitter": "@JulyChurchs"
        },
        {
            "id": 3,
            "nombre": "Bertín Osborne",
            "profesion": "Java Developer",
            "foto": "bertin.jpg",
            "estado": "Vivo",
            "twitter": "@BertinOsborne"
        }
    ]
}